{
  "products": [
    {
      "id": 1,
      "name": "Caneta BIC Preta",
      "price": 5.9
    },
    {
      "id": 2,
      "name": "Notebook MAC",
      "price": 12225.9
    },
    {
      "id": 3,
      "name": "Samsumg BIC Preta",
      "price": 5333.9
    }
  ]
}